0.05,-0.8665485869565168,-2.4588672380357726e-5,0.00042253656300544613,0.003461500580398871,-0.0011724535584534015,-0.005186496485262308
0.1,-0.8662374634805511,0.0006265747709495234,-0.006574495103333694,-0.0031303138274934262,0.0019308536748349802,0.00804433829608952
0.15,-0.8661923915392149,0.0028373834308530067,-0.025305594247323017,-0.0016356221090715337,0.007020460535389973,0.004700064313112471
0.2,-0.8661091212591758,0.007638076293742697,-0.055602227152646205,-0.010608955502288093,0.012504010869561473,0.021551420092417988
0.25,-0.8654322082364441,0.014798382920336209,-0.09009033145375529,-0.01964167978055549,0.016964230020526633,0.028159333580997016
0.3,-0.8636156994579238,0.022592297552702163,-0.11749788869339228,-0.02789475899144018,0.015186650373242901,0.02502840782716966
0.35,-0.8605752177765924,0.028886503040017,-0.1327095429584152,-0.04160096380483984,0.007558245499184722,0.026480795003832356
0.4,-0.8567721482763357,0.03166929992576495,-0.13884553158876395,-0.043778417188009365,-0.004708994726067023,0.0049831132221989025
0.45,-0.8528570833533451,0.03063570553334559,-0.14433453661851947,-0.057911546584342374,-0.01211175578094676,0.003772093080744641
0.5,-0.8489215975282437,0.025612698562799945,-0.1531670082459303,-0.060050122946325446,-0.021495839780853336,-0.008822111822143864
0.55,-0.845143324345506,0.01462101924705856,-0.15957034682251076,-0.06799770293192861,-0.023936659390842517,-0.009814504291985722
0.6,-0.8418691470377853,-0.003752521480841457,-0.15617741043366395,-0.06929229701705159,-0.027105610890092884,-0.012107655369658162
0.65,-0.8392301306425994,-0.029980798018786003,-0.14042307760524209,-0.06194924312515638,-0.03058626767569462,-0.02081371497704448
0.7,-0.8370618378712192,-0.06402711606839585,-0.11221561981816175,-0.05925717950063231,-0.028898264751587213,-0.016975039923666335
0.75,-0.8348108022705409,-0.10312694375915042,-0.07583898852275836,-0.04109475439886084,-0.03140867477115481,-0.029659839507868303
0.8,-0.8321995388303394,-0.14178623412325808,-0.04160489686567242,-0.03650344513996188,-0.0281410595596665,-0.025200464834117267
0.85,-0.8292002791364281,-0.1753907109493298,-0.017485280862673116,-0.024408756280871382,-0.030117615000069542,-0.034568939714297996
0.9,-0.8259278883697387,-0.2022174129965603,-0.005735183797212664,-0.023490740797190553,-0.03062683673953224,-0.03364029637897198
0.95,-0.8224788432722396,-0.22165713013240013,-0.006462221769333347,-0.026041689927759952,-0.03206813904540673,-0.03547995269291534
1.0,-0.8189079092159407,-0.23338732250088884,-0.01964118819174333,-0.029118696258946558,-0.03697153201906022,-0.04229225876478127
1.05,-0.8150187812853993,-0.23784324947014981,-0.04528008434596803,-0.04558789570423407,-0.039385041361638284,-0.037030420297223296
1.1,-0.8106122607994062,-0.2371413920283107,-0.0796664753149475,-0.05366081991198326,-0.04687867400660705,-0.04799158969552009
1.15,-0.8058036211237767,-0.23570461534662743,-0.114201211266897,-0.07411983550845067,-0.05056581421117007,-0.04096420772082537
1.2,-0.8008469692904299,-0.23705587104519812,-0.14243557139697413,-0.08193033552390012,-0.05723859767598566,-0.0504866521129201
1.25,-0.7959448046965261,-0.24191336234069044,-0.16421161257050168,-0.09442150579795376,-0.060735656071728886,-0.05008969583533145
1.3,-0.7912751022088945,-0.24994452023457972,-0.18129352624852724,-0.1028174107856118,-0.06465219383158913,-0.05187100257702472
1.35,-0.7870232625807118,-0.2620899620995154,-0.19200932634194806,-0.10521170083548614,-0.06885816508509021,-0.05872705243388351
1.4,-0.7835218810654105,-0.2801978297790929,-0.19235977042814612,-0.11183840842795685,-0.06928499076410582,-0.05352099609201119
1.45,-0.7808428403030557,-0.30510209661401305,-0.18037379011818613,-0.10250928553045675,-0.0726818994882745,-0.06447693080335021
1.5,-0.7789211855107451,-0.33666078869001276,-0.15597080145279613,-0.10043805232430669,-0.07024871554550564,-0.05879907728280788
1.55,-0.7773413748765023,-0.37387305442206864,-0.11909851250002593,-0.0839273822849592,-0.07110004501140646,-0.0673024947324049
1.6,-0.7756911222253242,-0.4128688904623387,-0.07626337571422048,-0.07164343475879528,-0.06894020104003384,-0.0687771400969789
1.65,-0.7734377362317227,-0.44740145580916596,-0.03950798223716114,-0.06068777815704606,-0.06769586222535785,-0.07126941564555228
1.7,-0.7702198376548101,-0.47357721033333355,-0.01479524134248176,-0.049791843145619186,-0.06985041742905966,-0.07933934728843696
1.75,-0.7666013081761553,-0.4909487040744489,-0.002573969068166709,-0.05214954220032553,-0.0696432794509522,-0.07519269532353956
1.8,-0.7640199473734467,-0.5000479948305209,-0.0028058273828397815,-0.04729554285093164,-0.07384325008635241,-0.08548277874657026
1.85,-0.7630179606961761,-0.501149603778002,-0.015544920841493332,-0.058316759702935074,-0.07306835710807684,-0.07764592749672745
1.9,-0.7625802734226098,-0.4940276170669492,-0.04074366615112783,-0.06300965663574415,-0.07626789815420168,-0.0835743020217557
1.95,-0.7614307934856107,-0.478597389879338,-0.07842816357688329,-0.07920149615610031,-0.0777005018872362,-0.07881778636753956
2.0,-0.7592875993360491,-0.45729559119508056,-0.1239138058944165,-0.09600212542386125,-0.08110349337561042,-0.0770622509555148
2.05,-0.7566559571169652,-0.43566376649631716,-0.16667120604365931,-0.10889003888456589,-0.08617429826565168,-0.08007290235671831
2.1,-0.7543022242162948,-0.41833972112356627,-0.19903813607305015,-0.1261169940371784,-0.08730188660920767,-0.0730294044720788
2.15,-0.7526504631130357,-0.40699055048727373,-0.21903460420797327,-0.1278808162924739,-0.09146524716477542,-0.08171862901517621
2.2,-0.7519008973494913,-0.40168827328782514,-0.2270788359733548,-0.1371093122490242,-0.09034596520672443,-0.07383216261950422
2.25,-0.7518918874952021,-0.4011077800382423,-0.22634034818529086,-0.13279597466559168,-0.09217941841326381,-0.08073178746955052
2.3,-0.7523993751998774,-0.40338980718342243,-0.2209181674346814,-0.13306346805419603,-0.09113155018414544,-0.0783773238903846
2.35,-0.7531192177473844,-0.40738482660486824,-0.21279039591946042,-0.13104099996548485,-0.0904332535433858,-0.07743944360374452
2.4,-0.7537548031350708,-0.41187808887348537,-0.20418129242223926,-0.12452678568575279,-0.09107341833691651,-0.08289200422716467
2.45,-0.7542628619173855,-0.4154547639561276,-0.19758369098732687,-0.1276530599335896,-0.0886336356479237,-0.07572444166442455
2.5,-0.7545433632641028,-0.4174466105477407,-0.1941172911107359,-0.12025731373135207,-0.09102449473692584,-0.08460773127052824
2.55,-0.7546456582609125,-0.4179160241778318,-0.19374330363987532,-0.12591895942288775,-0.08894363461532996,-0.07691271482752532
2.6,-0.754546015891369,-0.4172024702533829,-0.1954451070460323,-0.12272218900746636,-0.09082538518398753,-0.08253916648472988
2.65,-0.7543298275115045,-0.41589323746445805,-0.19810028576918787,-0.12520566815849937,-0.09081319270521948,-0.08073852428084999
2.7,-0.7541155343990452,-0.41453527783559774,-0.2007432434431542,-0.12774673792413552,-0.0906584035298816,-0.07897609697123811
2.75,-0.7539333777829741,-0.41347643644996673,-0.20268732145196286,-0.12464454417446474,-0.09253512533644907,-0.08458271579634324
2.8,-0.7538700935762228,-0.412902124098523,-0.2036811298354811,-0.13070366867138863,-0.09062625668890496,-0.07691439970136897
2.85,-0.7538485549306289,-0.4128043305177912,-0.20372428314091634,-0.12471936816894491,-0.09300903802528054,-0.0855455761765361
2.9,-0.7539055408419252,-0.41308793471061545,-0.20312903664795723,-0.12979971606908833,-0.09099800941974097,-0.07815634445324547
2.95,-0.753971473030549,-0.41356500048954986,-0.20218872841364408,-0.12606481121633703,-0.09213494200840121,-0.08289019019294487
3.0,-0.7540264880817136,-0.4140710826937752,-0.20124086418914905,-0.12643357996628946,-0.09166876969459986,-0.0817188583122446
3.05,-0.7540817112128029,-0.4144737575238767,-0.20052471156310966,-0.12803495256385922,-0.09072447543439963,-0.07880974547663802
3.1,-0.7540904065104753,-0.4146967040440579,-0.20013860712138273,-0.12347026505994813,-0.09212138492858832,-0.08465292012097916
3.15,-0.7541190049781147,-0.4147492614464868,-0.2001271329389389,-0.12901272274818976,-0.08973010326589279,-0.07638394854356395
3.2,-0.7540960178527598,-0.4146555336323661,-0.20034323850074146,-0.12300059365439225,-0.09173642063709582,-0.08437018816429877
3.25,-0.7540735861976947,-0.41449187412120314,-0.20070052260392,-0.12785288304321735,-0.08962803976436051,-0.07721665983868717
3.3,-0.7540341309745127,-0.41430194206724835,-0.20105130812923738,-0.1249534362724403,-0.09048321461067703,-0.0808775141535282
3.35,-0.7539979844132143,-0.41413378701787007,-0.2013496117255772,-0.1251013034572406,-0.0901651547070774,-0.0803095653011966
3.4,-0.7540014513050635,-0.4140104151815075,-0.20157183378355897,-0.12747921354182987,-0.08900147545400913,-0.07659697654966942
3.45,-0.753982271999158,-0.4139300747207987,-0.20168121263508826,-0.1227763575141475,-0.09055008128049934,-0.0827888910432383
3.5,-0.7539940581249429,-0.4139067065951157,-0.20173164390467152,-0.12843594328756558,-0.08817367724822367,-0.07454076967612408
3.55,-0.7539700651192045,-0.41391965753581794,-0.20168526925854297,-0.12262398691183479,-0.09020388521922637,-0.08235431337359586
3.6,-0.753969517543055,-0.4139771522371325,-0.2015941130808249,-0.12697882277483521,-0.08841537657677723,-0.07603425659070766
3.65,-0.7539838100793816,-0.4140589359781833,-0.20143951169281527,-0.12463397807439669,-0.08922057349864759,-0.07916184778680078
3.7,-0.7540174593483452,-0.41415638093714413,-0.20127075473462838,-0.1241852270563894,-0.08937120412301162,-0.07971677426822413
3.75,-0.7540825288861575,-0.41425781305770504,-0.20112780046513187,-0.12711773721592967,-0.08828415623350386,-0.07565852662513455
3.8,-0.7540819696945913,-0.41434486843487384,-0.2009771249105174,-0.12226882704227443,-0.0902321101459154,-0.08258907390970421
3.85,-0.7540865636942824,-0.414412331093047,-0.2008860663919593,-0.12808846843307253,-0.08820044177344935,-0.07473267102781095
3.9,-0.7540826250541162,-0.4144145181908299,-0.2008668066326026,-0.12278479938170439,-0.09046735334190853,-0.082565085537329
3.95,-0.7541187577110815,-0.41436390580126525,-0.2009817987085721,-0.12696279204150052,-0.08920164854504659,-0.07723833872636013
4.0,-0.7541320092070255,-0.4142746611892946,-0.20114975304768948,-0.12552227103758315,-0.09010466572466554,-0.07985924798419167
4.05,-0.7540976643004234,-0.4141716122725586,-0.20132686001139852,-0.12481300561433654,-0.09076247243228186,-0.08151178653472761
4.1,-0.7540877095504863,-0.41408084398035344,-0.20149761361434249,-0.12842138824732666,-0.08978051849457117,-0.07710916782506529
4.15,-0.7540698286162425,-0.4140255281050227,-0.20157601751790352,-0.12355477055494637,-0.09198322538549555,-0.08449684066276782
4.2,-0.7541068367290138,-0.4140483332254779,-0.20156159426713055,-0.12940463877809383,-0.09004997680264203,-0.07677919576817836
4.25,-0.75412679281792,-0.4141326203411581,-0.20140081014666694,-0.12435762166451915,-0.09218401076088789,-0.08416421565342713
4.3,-0.7541545500557142,-0.4142663327882684,-0.20117533908242213,-0.12786948228014747,-0.09099883149127719,-0.07946945010774875
4.35,-0.7541749104146633,-0.41439636388128226,-0.20094487752475979,-0.12674026286878176,-0.09151663242276416,-0.08116858770617466
4.4,-0.7541735065782561,-0.4144713031879693,-0.200811024005526,-0.12526701280265817,-0.09212901849828714,-0.08330651379466728
4.45,-0.7541933572851657,-0.4144649077558141,-0.20085840442928704,-0.12902155717113795,-0.09072201379309687,-0.07810185128391794
4.5,-0.7541730582903332,-0.4143713856400166,-0.20104086099560384,-0.1238517381733039,-0.0926786108349369,-0.08533781053201166
4.55,-0.7541500706683786,-0.41424258706527056,-0.20132683900824572,-0.12949456967964174,-0.09048505227413231,-0.07740023528504808
4.6,-0.7540785007770268,-0.41412854951010486,-0.20154611548211354,-0.12467931271570686,-0.0922013563298585,-0.08396408501455332
4.65,-0.7540629072714755,-0.41410995681938184,-0.2016064370086353,-0.12757336322955576,-0.0908945052538628,-0.07956793804147312
4.7,-0.7541024742465857,-0.41419905722818307,-0.20143506409533674,-0.1268012374853608,-0.09087619853109957,-0.0801283479833563
4.75,-0.7541219756329332,-0.41435569801148486,-0.20110893204269714,-0.12457773972490403,-0.09135308612488202,-0.08260953282892392
4.8,-0.7541504015069731,-0.4145079333192746,-0.2008063067709596,-0.12835145542695825,-0.0895335023965284,-0.07668435279282529
4.85,-0.7541264698485901,-0.414566565707917,-0.20062379913208264,-0.12282795593104345,-0.0912872339718951,-0.0838356710433237
4.9,-0.754117340538708,-0.41451510906249367,-0.20067607829735562,-0.1281121694379803,-0.08899760293798153,-0.07598952508608481
4.95,-0.7540818023349785,-0.41435228158046983,-0.20089631645066117,-0.12364052522063426,-0.09047535145090087,-0.08190848237504403
5.0,-0.7540494263979461,-0.4141291954486444,-0.20124466354339415,-0.12612412145042207,-0.08936981148878975,-0.07821300599834906
5.05,-0.7540225953286612,-0.4138900260054318,-0.20163923537450995,-0.1261120141688058,-0.08924595944996223,-0.07807056126101689
5.1,-0.753973539761793,-0.41368570581875086,-0.20199449752609427,-0.12374333455843319,-0.09004144116731624,-0.08125750101453377
5.15,-0.7539555004326335,-0.41358342089494066,-0.2022215267385635,-0.12806348059761696,-0.08829735319587104,-0.07507663743002664
5.2,-0.753923110098982,-0.41362188771902425,-0.20217782060224906,-0.12265890508013516,-0.0902408965688831,-0.0824358654510375
5.25,-0.7539547698114059,-0.41382358107023665,-0.20188866381971374,-0.12772746898541862,-0.08818841292538195,-0.07510708148374544
5.3,-0.754008551960583,-0.41412574510009714,-0.20137066007631188,-0.12356159608263745,-0.08966240967067303,-0.08069404351405743
5.35,-0.7540881520116144,-0.41446827134415415,-0.20075933597613044,-0.12532333250001512,-0.08894717658484887,-0.07807170661663172
5.4,-0.7541700480022301,-0.4147798107448968,-0.200178413668969,-0.12570339925483479,-0.0888294423284462,-0.07751094569646545
5.45,-0.7541912403367362,-0.4149756154083941,-0.19977872355568674,-0.12284036116066266,-0.09004836459459943,-0.081690840383349
5.5,-0.754186384121639,-0.4149626360409344,-0.19978162065226063,-0.1275476664075095,-0.08852721684534753,-0.07557382622843023
5.55,-0.7541030143518016,-0.41465889561914615,-0.20030402785887746,-0.12258861745499139,-0.09084219869488509,-0.08328837462474442
5.6,-0.7540311987796185,-0.4140974285044567,-0.20138488717264158,-0.1281161928273615,-0.08930800659191002,-0.0766201285512449
5.65,-0.7539791078403792,-0.4133948621779994,-0.2027118272240055,-0.12522853710645973,-0.0910472864420296,-0.08186629351290456
5.7,-0.7539824294177877,-0.41284721547857284,-0.20379336837444345,-0.12720514686423132,-0.09088992472380499,-0.080120160602197
5.75,-0.7540201560767698,-0.4128298494504184,-0.20393557417751193,-0.12841032574802835,-0.09075525823726738,-0.07889371266240557
5.8,-0.7540221626182093,-0.4136165016393737,-0.2024525632666569,-0.12479088888848551,-0.0920774515011728,-0.0836366740772195
5.85,-0.7541382832724997,-0.4151773220301517,-0.19931289547962863,-0.128458831850974,-0.09027034528092531,-0.07741437157187174
5.9,-0.7544991328527132,-0.4169380504226481,-0.19570499139300412,-0.12195329020237197,-0.09208983121109035,-0.08508524689075232
5.95,-0.7549435770602823,-0.41789646881171305,-0.1935678893765193,-0.1261335244019186,-0.09008290701836018,-0.07854259042611982
6.0,-0.755406368641513,-0.4188227970413291,-0.19152731944881585,-0.12907906745292833,-0.08938829980488777,-0.07162664728258887
