0.0,1.655796779370764e-5
0.04,6.460303912972956e-6
0.08,-7.825362122094916e-5
0.12,-0.00016433423549234603
0.16,0.00025717635034309093
0.2,0.0016296416251828233
0.24,0.004713392599115691
0.28,0.009402918600029602
0.32,0.007776022893535645
0.36,8.394797191886572e-5
0.4,-0.005928094513939178
0.44,-0.010437039046518305
0.48,-0.013690085633306467
0.52,-0.015497394546817728
0.56,-0.015959308332685523
0.6,-0.015309325050304856
0.64,-0.013585770698706659
0.68,-0.0112403464251076
0.72,-0.008432907846038257
0.76,-0.005520183207324475
0.8,-0.0028936680020936467
0.84,-0.0006878263435786958
0.88,0.001004346738000178
0.92,0.001962792584688039
0.96,0.002372529146243252
1.0,0.002315433038433956
1.04,0.001760413183496512
1.08,0.001105703639134481
1.12,0.0004089688596923269
1.16,-0.0003168889453796231
1.2,-0.0008679190759204314
1.24,-0.0012830535685735556
1.28,-0.001600847416134421
1.32,-0.0015888226936776606
1.36,-0.0012954294702033353
1.4,-0.0007355726860555079
1.44,0.00028455743558930546
1.48,0.0014526179386386007
1.52,0.002617426578580051
1.56,0.0036611465327610615
1.6,0.004161071927486937
1.64,0.0036517976891135007
1.68,0.002026640746906949
1.72,-0.0012485585726802473
1.76,-0.006378975796799247
1.8,-0.013357575821736689
1.84,-0.006765215251565038
1.88,-0.002022369293428361
1.92,0.000968929902067206
1.96,0.002400787124379522
2.0,0.002796088403979158
2.04,0.002365971482160778
2.08,0.0014833137475152025
2.12,0.0005165843889710642
2.16,-0.0004121949467614794
2.2,-0.0012140644679372592
2.24,-0.001617598057757741
2.28,-0.0018253660650525694
2.32,-0.0018478167179101224
2.36,-0.0015992612331403588
2.4,-0.001305381245460091
2.44,-0.0009984294707269248
2.48,-0.000626111961029574
2.52,-0.0003669467468166987
2.56,-0.00017147097539571554
2.6,5.0857659752434614e-5
2.64,0.00014486493047660698
2.68,0.000226875851990882
2.72,0.00037107388721424606
2.76,0.00043109195239054987
2.8,0.0005100184057013069
2.84,0.0006598450717636428
2.88,0.0007201093202937603
2.92,0.0007949933265216647
2.96,0.0008985010400203164
3.0,0.0008942495605603895
3.04,0.0009052468076892195
3.08,0.0009199198471406822
3.12,0.000810547399062389
3.16,0.0007269682229401608
3.2,0.0006537201236757051
3.24,0.000465753606265773
3.28,0.00032581394856656676
3.32,0.00019668129081207297
3.36,-1.3948649745021413e-5
3.4,-0.000156172183129355
3.44,-0.0002840121870784085
3.48,-0.000472736928334605
3.52,-0.0005760654765595286
3.56,-0.0006775701808978685
3.6,-0.0008336154625274705
3.64,-0.0008840125134763621
3.68,-0.0009399640295283396
3.72,-0.0010357559426393825
3.76,-0.0010250100029662867
3.8,-0.0010189864979499585
3.84,-0.0010393131386623455
3.88,-0.0009539784853693778
3.92,-0.0008823135581402797
3.96,-0.0008226247726171865
4.0,-0.0006632900737039149
4.04,-0.000543278446965223
4.08,-0.0004343729508086147
4.12,-0.00023436902970708218
4.16,-9.090858347815534e-5
4.2,3.467212140528808e-5
4.24,0.00023879057557307792
4.28,0.0003675926533684981
4.32,0.00047868748394508387
4.36,0.0006440795688046341
4.4,0.0007242840138871331
4.44,0.0007913623017208327
4.48,0.0008948739129701622
4.52,0.000897827424286457
4.56,0.0009011115910504408
4.6,0.0009384610385123615
4.64,0.0008632083496237231
4.68,0.0008009970572714353
4.72,0.0007643839440418798
4.76,0.0006273584031682988
4.8,0.0005116826222435478
4.84,0.00041702624953332545
4.88,0.00023400870090195536
4.92,9.038791173321403e-5
4.96,-3.958033416318063e-5
5.0,-0.0002476097769037455
5.04,-0.0003863788060090023
5.08,-0.000507590394437929
5.12,-0.0006867828081696947
5.16,-0.0007809998490624359
5.2,-0.0008553741065296938
5.24,-0.0009766517105128658
5.28,-0.0009979830638046083
5.32,-0.0009956646268309832
5.36,-0.0010244282659592763
5.4,-0.0009601497300358863
5.44,-0.0008949829208181326
5.48,-0.0008653857294566025
5.52,-0.0007487298952403298
5.56,-0.0006526080825546288
5.6,-0.0005939546035887977
5.64,-0.0004466854500221329
5.68,-0.0003218748746257605
5.72,-0.00021426547523595296
5.76,-1.751365776780922e-5
5.8,0.00016115836434771325
5.84,0.0003220900621607736
5.88,0.0005131005040466263
5.92,0.0005692813426699805
5.96,0.0005459796880659118
